/home/javier/Proyectos/Clase/FPGSDAMII-WithAVengeance/INTERFACES/RUBRICAS/06-01/JaviSpringPlantilla/src/main/java/javi/spring/app/SpringBootWebApplication.java
/home/javier/Proyectos/Clase/FPGSDAMII-WithAVengeance/INTERFACES/RUBRICAS/06-01/JaviSpringPlantilla/src/main/java/javi/spring/controller/IndexController.java
/home/javier/Proyectos/Clase/FPGSDAMII-WithAVengeance/INTERFACES/RUBRICAS/06-01/JaviSpringPlantilla/src/main/java/javi/spring/model/Saludo.java
